{
	"info": {
		"_postman_id": "190f5d58-94dd-48df-a799-1aa01b6ddadb",
		"name": "s33",
		"schema": "https://schema.getpostman.com/json/collection/v2.1.0/collection.json",
		"_exporter_id": "25568779"
	},
	"item": [
		{
			"name": "get all to do list items",
			"request": {
				"method": "GET",
				"header": [],
				"url": {
					"raw": "https://jsonplaceholder.typicode.com/todos",
					"protocol": "https",
					"host": [
						"jsonplaceholder",
						"typicode",
						"com"
					],
					"path": [
						"todos"
					]
				}
			},
			"response": []
		},
		{
			"name": "get to do list item",
			"request": {
				"method": "GET",
				"header": [],
				"url": {
					"raw": "https://jsonplaceholder.typicode.com/todos/1",
					"protocol": "https",
					"host": [
						"jsonplaceholder",
						"typicode",
						"com"
					],
					"path": [
						"todos",
						"1"
					]
				}
			},
			"response": []
		},
		{
			"name": "create to do list item",
			"request": {
				"method": "POST",
				"header": [],
				"body": {
					"mode": "raw",
					"raw": "{\r\n        \"userId\": 1,\r\n        \"title\": \"Created To Do List Item\",\r\n        \"completed\": false\r\n}",
					"options": {
						"raw": {
							"language": "json"
						}
					}
				},
				"url": {
					"raw": "https://jsonplaceholder.typicode.com/todos",
					"protocol": "https",
					"host": [
						"jsonplaceholder",
						"typicode",
						"com"
					],
					"path": [
						"todos"
					]
				}
			},
			"response": []
		},
		{
			"name": "update to do list PUT",
			"request": {
				"method": "PUT",
				"header": [],
				"body": {
					"mode": "raw",
					"raw": "{\r\n        \"userId\": 1,\r\n\t\t\"title\": \"Updated To D List Item\",\r\n\t\t\"description\": \"To update the my to do list with a different data structure\",\r\n\t\t\"status\": \"Pending\",\r\n\t\t\"dateCompleted\": \"Pending\"\r\n}",
					"options": {
						"raw": {
							"language": "json"
						}
					}
				},
				"url": {
					"raw": "https://jsonplaceholder.typicode.com/todos/1",
					"protocol": "https",
					"host": [
						"jsonplaceholder",
						"typicode",
						"com"
					],
					"path": [
						"todos",
						"1"
					]
				}
			},
			"response": []
		},
		{
			"name": "update to do list PATCH",
			"request": {
				"method": "PUT",
				"header": [],
				"body": {
					"mode": "raw",
					"raw": "{\r\n        \"userId\": 1,\r\n\t\t\"title\": \"Updated To D List Item\",\r\n\t\t\"description\": \"To update the my to do list with a different data structure\",\r\n\t\t\"status\": \"Pending\",\r\n\t\t\"dateCompleted\": \"Pending\"\r\n}",
					"options": {
						"raw": {
							"language": "json"
						}
					}
				},
				"url": {
					"raw": "https://jsonplaceholder.typicode.com/todos/1",
					"protocol": "https",
					"host": [
						"jsonplaceholder",
						"typicode",
						"com"
					],
					"path": [
						"todos",
						"1"
					]
				}
			},
			"response": []
		},
		{
			"name": "delete todo list item",
			"request": {
				"method": "DELETE",
				"header": [],
				"body": {
					"mode": "raw",
					"raw": "{\r\n        \"userId\": 1,\r\n\t\t\"title\": \"Updated To D List Item\",\r\n\t\t\"description\": \"To update the my to do list with a different data structure\",\r\n\t\t\"status\": \"Pending\",\r\n\t\t\"dateCompleted\": \"Pending\"\r\n}",
					"options": {
						"raw": {
							"language": "json"
						}
					}
				},
				"url": {
					"raw": "https://jsonplaceholder.typicode.com/todos/1",
					"protocol": "https",
					"host": [
						"jsonplaceholder",
						"typicode",
						"com"
					],
					"path": [
						"todos",
						"1"
					]
				}
			},
			"response": []
		}
	]
}